## Interface: 11200
## Title: |cff33ffccpf|cffffffffUI - addonbuttons
## Author: dein0s
## Notes: TBD
## Version: 0.1
## Dependencies: pfUI

# main
pfUI-addonbuttons-config.lua
pfUI-addonbuttons-gui.lua
pfUI-addonbuttons.lua
